Retail Forecasting Project
…
## # A tibble: 1 x 1
##   lb_pvalue
##       <dbl>
## 1  4.45e-11

The two automatic models suggested are actually worse than the ones we have looked at manually. Their AICc values are higher, their ACFs have many spikes outside the boundaries and we also reject the null for their Ljung-Box tests.

Evaluating all potential ARIMA models we have looked at so far on the test set:

## # A tibble: 34 x 9
##    .model   .type    ME  RMSE   MAE   MPE  MAPE  MASE  ACF1
##    <chr>    <chr> <dbl> <dbl> <dbl> <dbl> <dbl> <dbl> <dbl>
##  1 best_3   Test   12.0  16.7  14.3  3.31  3.89 0.856 0.207
##  2 best_2   Test   12.8  17.2  14.8  3.53  4.04 0.888 0.176
##  3 arima_15 Test   13.1  17.4  15.0  3.58  4.06 0.896 0.228
##  4 arima_30 Test   13.1  17.4  15.0  3.58  4.06 0.896 0.228
##  5 arima_21 Test   12.3  17.7  15.6  3.41  4.23 0.932 0.310
##  6 arima_6  Test   12.3  17.7  15.6  3.41  4.23 0.932 0.310
##  7 arima_20 Test   13.4  17.7  15.3  3.68  4.15 0.917 0.228
##  8 arima_5  Test   13.4  17.7  15.3  3.68  4.15 0.917 0.228
##  9 arima_11 Test   13.1  17.9  15.7  3.61  4.27 0.940 0.280
## 10 arima_26 Test   13.1  17.9  15.7  3.61  4.27 0.940 0.280
## # ... with 24 more rows
…
Ljung-Box test with 24 lags: we reject the null for ETS model. In contrast, we do not reject the null for the ARIMA models test. Residuals from ARIMA model resemble a white noise process while those from ETS do not. This suggests that PIs for ARIMA are more reliable than those for ETS.

Forecasts: ARIMA performs better both on the train and test set, regardless of which measure is being used. The PIs for ARIMA and ETS are comparable in terms of width, but point forecasts for ARIMA are closer to the actual turnover values than for ETS.

Therefore, ARIMA seems to give better forecasts for my series when training on the train set and evaluating on the test set.

ARIMA has also captured all the autocorrelations in the residuals while ETS has not.

6. Two-year forecasts - from Jan 2018 to Dec 2019.

Forecasting with ETS:

Point forecasts and 80% prediction intervals:

## # A tsibble: 24 x 4 [1M]
## # Key:       .model [1]
##    .model      month turnover                  `80%`
##    <chr>       <mth>    <dbl>                 <hilo>
##  1 best_ets 2018 Jan     339. [318.4357, 360.3008]80
##  2 best_ets 2018 Feb     322. [298.5046, 345.8293]80
##  3 best_ets 2018 Mar     351. [321.7873, 380.6128]80
##  4 best_ets 2018 Apr     347. [315.0492, 379.7123]80
##  5 best_ets 2018 May     366. [328.7118, 403.1290]80
##  6 best_ets 2018 Jun     356. [317.1534, 395.3535]80
##  7 best_ets 2018 Jul     368. [324.6148, 410.9634]80
##  8 best_ets 2018 Aug     374. [327.2470, 420.4635]80
##  9 best_ets 2018 Sep     366. [318.0422, 414.4812]80
## 10 best_ets 2018 Oct     373. [321.3401, 424.5610]80
## # ... with 14 more rows
…
Forecasting with ARIMA:

Point forecasts and 80% prediction intervals:

## # A tsibble: 24 x 4 [1M]
## # Key:       .model [1]
##    .model        month turnover                  `80%`
##    <chr>         <mth>    <dbl>                 <hilo>
##  1 best_arima 2018 Jan     333. [313.5599, 353.5538]80
##  2 best_arima 2018 Feb     325. [301.3356, 349.6003]80
##  3 best_arima 2018 Mar     354. [325.2773, 383.7647]80
##  4 best_arima 2018 Apr     354. [322.5976, 387.2820]80
##  5 best_arima 2018 May     382. [345.1886, 420.2300]80
##  6 best_arima 2018 Jun     368. [329.6272, 407.1628]80
##  7 best_arima 2018 Jul     378. [336.4599, 420.7142]80
##  8 best_arima 2018 Aug     397. [350.9312, 444.4036]80
##  9 best_arima 2018 Sep     381. [335.1054, 429.0580]80
## 10 best_arima 2018 Oct     390. [340.6267, 441.0942]80
## # ... with 14 more rows
…
Both models produce forecasts that capture the shape of the actual turnover really well. Their prediction intervals are also comparable in terms of width, and both contain the actual values. However, we can clearly see that ARIMA forecasts follow more closely the actual turnover values than those of ETS.

## # A tibble: 4 x 9
##   .model     .type         ME  RMSE   MAE     MPE  MAPE  MASE    ACF1
##   <chr>      <chr>      <dbl> <dbl> <dbl>   <dbl> <dbl> <dbl>   <dbl>
## 1 best_arima Training -0.0426  8.90  5.97 0.00705  3.33 0.356 -0.0745
## 2 best_ets   Training  0.677   8.92  6.26 0.259    3.54 0.373 -0.0318
## 3 best_arima Test      9.35   13.0  10.1  2.33     2.52 0.599  0.0405
## 4 best_ets   Test     24.7    28.4  25.0  6.17     6.27 1.49   0.313

ARIMA is clearly the better model judging by both the train and test sets, regardless of which measure is used.

Point forecasts and prediction intervals from ETS(M,Ad,M):

## # A tibble: 24 x 4
##       month turnover lower upper
##       <mth>    <dbl> <dbl> <dbl>
##  1 2018 Jan     339.  318.  360.
##  2 2018 Feb     322.  299.  346.
##  3 2018 Mar     351.  322.  381.
##  4 2018 Apr     347.  315.  380.
##  5 2018 May     366.  329.  403.
##  6 2018 Jun     356.  317.  395.
##  7 2018 Jul     368.  325.  411.
##  8 2018 Aug     374.  327.  420.
##  9 2018 Sep     366.  318.  414.
## 10 2018 Oct     373.  321.  425.
## # ... with 14 more rows

Point forecasts and prediction intervals from ARIMA(2,0,3)(2,1,3)[12]:

## # A tibble: 24 x 4
##       month turnover lower upper
##       <mth>    <dbl> <dbl> <dbl>
##  1 2018 Jan     333.  314.  354.
##  2 2018 Feb     325.  301.  350.
##  3 2018 Mar     354.  325.  384.
##  4 2018 Apr     354.  323.  387.
##  5 2018 May     382.  345.  420.
##  6 2018 Jun     368.  330.  407.
##  7 2018 Jul     378.  336.  421.
##  8 2018 Aug     397.  351.  444.
##  9 2018 Sep     381.  335.  429.
## 10 2018 Oct     390.  341.  441.
## # ... with 14 more rows
…
